🔥 Quantitative Research Methods – Data Analysis Workflow – The Firehose
…
Then we create another column in our tibble called Party. sample() is a function that randomly selects values from a specified set. Here, it’s used to pick a political party for each division, simulating party representation across divisions.

x defines the set of values that sample() will pick from. The c() function combines these five options — “Liberal”, “Labor”, “National”, “Green”, and “Other” — into a list of possible parties. In other words, each division will be randomly assigned one of these five party names, representing the political party that wins the division in our simulation. size = 151 specifies that sample() should generate 151 random selections, matching the number of divisions we created in the “Division” column.

When sampling, replace = TRUE allows each party name to be selected multiple times, as though we’re picking “with replacement” (i.e., once we sample a party name, it goes back into the bag so it can be drawn again). Without this, each party could only be chosen once, which wouldn’t match our goal of assigning a random party to each division.

We can print the simulated_data object to view the simulated dataset. When we run this line, R will display the table with two columns, Division and Party, where each division is assigned one of the five parties randomly.

3.4 simulate

🤘 We have our fake data!

simulated_data

# A tibble: 151 × 2
   Division Party   
      <int> <chr>   
 1        1 Liberal 
 2        2 Green   
 3        3 Green   
 4        4 Green   
 5        5 Other   
 6        6 Labor   
 7        7 National
 8        8 National
 9        9 Other   
10       10 Labor   
# ℹ 141 more rows
…
✌️ R Tip

The here() function, from the here library, simplifies file paths by always referencing the root directory for a project. This makes code more reproducible and eliminates issues with working directories, especially when you are using more than one machine, collaborating, or sharing code with someone else. Jenny Bryan wrote a brief “Ode to the here package,” “here here,” which you can read… here.

4.3 acquire

🤘 We have our real data!

raw_elections_data

# A tibble: 151 × 8
   DivisionID DivisionNm StateAb CandidateID GivenNm Surname
        <dbl> <chr>      <chr>         <dbl> <chr>   <chr>  
 1        179 Adelaide   SA            36973 Steve   GEORGA…
 2        197 Aston      VIC           36704 Alan    TUDGE  
 3        198 Ballarat   VIC           36409 Cather… KING   
 4        103 Banks      NSW           37018 David   COLEMAN
 5        180 Barker     SA            37083 Tony    PASIN  
 6        104 Barton     NSW           36820 Linda   BURNEY 
 7        192 Bass       TAS           37134 Bridge… ARCHER 
 8        318 Bean       ACT           36231 David   SMITH  
 9        200 Bendigo    VIC           36424 Lisa    CHESTE…
10        105 Bennelong  NSW           36827 Jerome  LAXALE 
# ℹ 141 more rows
# ℹ 2 more variables: PartyNm <chr>, PartyAb <chr>
…
